{
  "extends": ["tslint-config-airbnb", "tslint-react", "tslint-config-prettier"],
  "linterOptions": {
    "exclude": [
      "config/**/*.js",
      "node_modules/**/*.ts",
      "coverage/lcov-report/*.js",
      "src/registerServiceWorker.ts"
    ]
  },
  "rules": {
    "jsx-boolean-value": false,
    "object-shorthand-properties-first": false,
    "jsx-no-lambda": false,
    "variable-name": false,
    "import-name": false,
    "no-parameter-reassignment": false,
    "no-boolean-literal-compare": false,
    "no-default-export": true,
    "strict-type-predicates": true,
    "no-increment-decrement": false
  }
}
