

<svg width="176" height="16" viewBox="0 0 176 16" fill="none" xmlns="http://www.w3.org/2000/svg">
<path d="M175.707 8.70709C176.098 8.31657 176.098 7.6834 175.707 7.29288L169.343 0.928917C168.953 0.538393 168.319 0.538393 167.929 0.928918C167.538 1.31944 167.538 1.95261 167.929 2.34313L173.586 7.99998L167.929 13.6568C167.538 14.0474 167.538 14.6805 167.929 15.0711C168.319 15.4616 168.953 15.4616 169.343 15.0711L175.707 8.70709ZM8.74228e-08 9L175 8.99998L175 6.99998L-8.74228e-08 7L8.74228e-08 9Z" fill="#6FC7B4"/>
</svg>
