<svg width="82" height="82" viewBox="0 0 82 82" fill="none" xmlns="http://www.w3.org/2000/svg">
<circle cx="41" cy="41" r="40.5" fill="crimson" stroke="crimson"/>
<path fill-rule="evenodd" clip-rule="evenodd" d="M62.855 28.0252C64.3817 29.3919 64.3817 31.6081 62.855 32.9749L39.4005 53.9748C37.874 55.3417 35.3988 55.3417 33.8723 53.9748L22.145 43.4748C20.6183 42.1081 20.6183 39.8919 22.145 38.5252C23.6715 37.1582 26.1467 37.1582 27.6732 38.5252L36.6364 46.5503L57.3268 28.0252C58.8533 26.6583 61.3285 26.6583 62.855 28.0252Z" fill="white"/>
</svg>
